@startuml
abstract class Forma  {
{abstract} +dibuixa()
{abstract} +esborra()
+mou()
}
class Cercle {
+dibuixa()
+esborra()
}
class Quadrat {
+dibuixa()
+esborra()
}
class Triangle {
+dibuixa()
+esborra()
}

Forma <|-- Cercle
Forma <|-- Quadrat
Forma <|-- Triangle
@enduml
